Getting map data into R
…
## {sf} implements simple features for R

- Simple features is a formal standard for organising and processing GIS data.

- The `{sf}` package fully implements the simple features standards in R 

- The `{sf}` package ultimately provides us with a `data.frame()` like object that we can manipulate with the tidyverse. 

```
## Simple feature collection with 177 features and 2 fields
## geometry type:  MULTIPOLYGON
## dimension:      XY
## bbox:           xmin: -180 ymin: -90 xmax: 180 ymax: 83.64513
## CRS:            +proj=longlat +datum=WGS84 +no_defs +ellps=WGS84 +towgs84=0,0,0
## # A tibble: 177 x 3
##    name                   continent                                                                                              geometry
##    <chr>                  <chr>                                                                                        <MULTIPOLYGON []>
##  1 Afghanistan            Asia                    (((61.21082 35.65007, 62.23065 35.27066, 62.98466 35.40404, 63.19354 35.85717, 63.98...
##  2 Angola                 Africa                  (((16.32653 -5.87747, 16.57318 -6.622645, 16.86019 -7.222298, 17.09 -7.545689, 17.47...
##  3 Albania                Europe                  (((20.59025 41.8554, 20.46318 41.51509, 20.60518 41.08623, 21.02004 40.84273, 20.999...
##  4 United Arab Emirates   Asia                    (((51.57952 24.2455, 51.75744 24.29407, 51.79439 24.01983, 52.57708 24.17744, 53.404...
##  5 Argentina              South America           (((-65.5 -55.2, -66.45 -55.25, -66.95992 -54.89681, -67.56244 -54.87001, -68.63335 -...
##  6 Armenia                Asia                    (((43.58275 41.09214, 44.97248 41.24813, 45.1795 40.98535, 45.56035 40.81229, 45.359...
##  7 Antarctica             Antarctica              (((-59.57209 -80.04018, -59.86585 -80.54966, -60.15966 -81.00033, -62.25539 -80.8631...
##  8 Fr. S. Antarctic Lands Seven seas (open ocean) (((68.935 -48.625, 69.58 -48.94, 70.525 -49.065, 70.56 -49.255, 70.28 -49.71, 68.745...
##  9 Australia              Oceania                 (((145.398 -40.79255, 146.3641 -41.1377, 146.9086 -41.00055, 147.6893 -40.80826, 148...
## 10 Austria                Europe                  (((16.97967 48.1235, 16.90375 47.71487, 16.34058 47.7129, 16.53427 47.49617, 16.2023...
## #  with 167 more rows
```
…
